a
teachers
0
z
1
name
z
Y
3
start date
n
2
salary
y
abc
1500
9999
e
1
a
Frank van Viegen
01-01-2018
4000
a

Timothy Sealy
1-2-3
01-06-2015
500
4300
1
3
4100
b
b
a
modules
1
name
y
2
ects
y
1
60
4
responsible teacher
y
1
e
2
a
SQL
5
2
a
Static web
5
1
b
a
students
1
name
y
2
student id
y
100000

3
start date
n
4
study counsellor
y
1
4
current module
n
2
4
mentor
n
3
e
3
a
Alice
123456
01-02-2021
1
1
n
a
Bob
234567

2
2
1
b
g
x
